…
### 2. Naval tweets - Topic modelling

#### 2.a Extracting

``` r
naval_tweets <- naval_tweets %>%
    mutate(id = 1:nrow(naval_tweets))

text <- naval_tweets %>%
    select(text, id)
text
```

    ## # A tibble: 3,248 x 2
    ##    text                                                                       id
    ##    <chr>                                                                   <int>
    ##  1 "A rational person can find peace by cultivating indifference to thing~     1
    ##  2 "@Jayhassett It’s an IQ test for followers."                                2
    ##  3 "If @elonmusk manages to liberate Twitter, efforts to control free spe~     3
    ##  4 "Good product design requires an obsessed artist - it’s not a part-tim~     4
    ##  5 "@NolanOBrien Good thread. \U0001f44c"                                      5
    ##  6 "@DeoSaurabh There was no deck. It ran on SMS and I begged my way in."      6
    ##  7 "Democratizing verification levels the playing field, exposes bots, an~     7
    ##  8 "People trying to kill Twitter are about to discover how powerful netw~     8
    ##  9 "Charging for the blue check moves it from a status symbol to a utilit~     9
    ## 10 "@Tinfact1 Even the childless need a religion."                            10
    ## # ... with 3,238 more rows
…
#### 2.g Per-topic per-word probabilities

``` r
tidy_topics <- tidy(m, matrix = "beta") 

tidy_topics
```

    ## # A tibble: 137,650 x 3
    ##    topic term         beta
    ##    <int> <chr>       <dbl>
    ##  1     1 control 0.00100  
    ##  2     2 control 0.000943 
    ##  3     3 control 0.0000871
    ##  4     4 control 0.00324  
    ##  5     5 control 0.0000847
    ##  6     6 control 0.0000978
    ##  7     7 control 0.0000973
    ##  8     8 control 0.0000734
    ##  9     9 control 0.0000690
    ## 10    10 control 0.00337  
    ## # ... with 137,640 more rows
…
#### 2.i Word assignment to each topic

``` r
word_ass <- augment(m, dtm)
word_ass %>% arrange(desc(count))
```

    ## # A tibble: 14,762 x 4
    ##    document term    count .topic
    ##    <chr>    <chr>   <dbl>  <dbl>
    ##  1 2830     replace     6     15
    ##  2 1065     exit        6      9
    ##  3 1941     exit        6      9
    ##  4 2423     measure     5     10
    ##  5 2858     term        5     20
    ##  6 291      gt          5     11
    ##  7 2997     drone       5     23
    ##  8 1590     token       5      9
    ##  9 2590     fund        5     17
    ## 10 1716     wealth      4     19
    ## # ... with 14,752 more rows

#### 2.l Topic proportion in documents

``` r
tidy_gamma <- tidy(m, matrix = "gamma")

#we choose two random topics and sort the gamma values to verify which document has the higher prevalence of the selected topic
tidy_gamma %>% filter(topic == 1) %>% arrange(desc(gamma)) 
```

    ## # A tibble: 2,761 x 3
    ##    document topic gamma
    ##    <chr>    <int> <dbl>
    ##  1 2829         1 0.991
    ##  2 1929         1 0.986
    ##  3 2043         1 0.979
    ##  4 2575         1 0.979
    ##  5 654          1 0.974
    ##  6 761          1 0.974
    ##  7 2532         1 0.974
    ##  8 2794         1 0.974
    ##  9 297          1 0.971
    ## 10 2822         1 0.971
    ## # ... with 2,751 more rows

``` r
tidy_gamma %>% filter(topic == 2) %>% arrange(desc(gamma))
```

    ## # A tibble: 2,761 x 3
    ##    document topic gamma
    ##    <chr>    <int> <dbl>
    ##  1 783          2 0.989
    ##  2 1797         2 0.987
    ##  3 1968         2 0.987
    ##  4 776          2 0.982
    ##  5 1095         2 0.980
    ##  6 1558         2 0.980
    ##  7 1560         2 0.980
    ##  8 1231         2 0.977
    ##  9 410          2 0.974
    ## 10 1221         2 0.974
    ## # ... with 2,751 more rows

``` r
tidy_gamma %>% filter(topic == 15) %>% arrange(desc(gamma))
```

    ## # A tibble: 2,761 x 3
    ##    document topic gamma
    ##    <chr>    <int> <dbl>
    ##  1 2830        15 0.990
    ##  2 1306        15 0.989
    ##  3 1921        15 0.988
    ##  4 466         15 0.986
    ##  5 2757        15 0.985
    ##  6 1917        15 0.983
    ##  7 2354        15 0.983
    ##  8 3           15 0.982
    ##  9 403         15 0.982
    ## 10 2380        15 0.982
    ## # ... with 2,751 more rows
…
``` r
doc_ass <- naval_tweets %>%
    mutate(id = as.character(id)) %>%
    rename(document = "id") %>%
    inner_join(doc_class)
```

    ## Joining, by = "document"

``` r
doc_ass
```

    ## # A tibble: 2,618 x 93
    ##    user_id status_id           created_at          screen_name text       source
    ##    <chr>   <chr>               <dttm>              <chr>       <chr>      <chr> 
    ##  1 745273  1588950417530290178 2022-11-05 17:44:35 naval       "A ration~ Twitt~
    ##  2 745273  1588944535073468417 2022-11-05 17:21:12 naval       "@Jayhass~ Twitt~
    ##  3 745273  1588943799400927232 2022-11-05 17:18:17 naval       "If @elon~ Twitt~
    ##  4 745273  1588943426229522433 2022-11-05 17:16:48 naval       "Good pro~ Twitt~
    ##  5 745273  1588943145714450435 2022-11-05 17:15:41 naval       "@NolanOB~ Twitt~
    ##  6 745273  1588942383068368897 2022-11-05 17:12:39 naval       "@DeoSaur~ Twitt~
    ##  7 745273  1588936833060450304 2022-11-05 16:50:36 naval       "Democrat~ Twitt~
    ##  8 745273  1588806261583515648 2022-11-05 08:11:46 naval       "People t~ Twitt~
    ##  9 745273  1587523978456748033 2022-11-01 19:16:25 naval       "Charging~ Twitt~
    ## 10 745273  1587289881868238848 2022-11-01 03:46:12 naval       "@Tinfact~ Twitt~
    ## # ... with 2,608 more rows, and 87 more variables: display_text_width <dbl>,
    ## #   reply_to_status_id <chr>, reply_to_user_id <chr>,
    ## #   reply_to_screen_name <chr>, is_quote <lgl>, is_retweet <lgl>,
    ## #   favorite_count <int>, retweet_count <int>, quote_count <int>,
    ## #   reply_count <int>, hashtags <list>, symbols <list>, urls_url <list>,
    ## #   urls_t.co <list>, urls_expanded_url <list>, media_url <list>,
    ## #   media_t.co <list>, media_expanded_url <list>, media_type <list>, ...
…
#### 2.n Topics variation over time

``` r
doc_ass %>%
    mutate(year = year(created_at)) %>%
    group_by(year) %>%
    count(topic)
```

    ## # A tibble: 75 x 3
    ## # Groups:   year [3]
    ##     year topic     n
    ##    <dbl> <int> <int>
    ##  1  2020     1    32
    ##  2  2020     2    33
    ##  3  2020     3    42
    ##  4  2020     4    37
    ##  5  2020     5    56
    ##  6  2020     6    36
    ##  7  2020     7    35
    ##  8  2020     8    17
    ##  9  2020     9    27
    ## 10  2020    10    56
    ## # ... with 65 more rows
…
``` r
t %>% filter(topic == 21) %>% arrange(desc(n))
```

    ## # A tibble: 61 x 3
    ## # Groups:   date [61]
    ##    date       topic     n
    ##    <date>     <int> <int>
    ##  1 2020-11-01    21     9
    ##  2 2021-07-08    21     5
    ##  3 2021-12-29    21     4
    ##  4 2020-05-21    21     3
    ##  5 2020-05-29    21     3
    ##  6 2020-11-02    21     3
    ##  7 2021-09-06    21     3
    ##  8 2021-12-30    21     3
    ##  9 2020-05-18    21     2
    ## 10 2020-05-20    21     2
    ## # ... with 51 more rows

``` r
t %>% filter(topic == 22) %>% arrange(desc(n))
```

    ## # A tibble: 85 x 3
    ## # Groups:   date [85]
    ##    date       topic     n
    ##    <date>     <int> <int>
    ##  1 2020-11-01    22     6
    ##  2 2021-12-30    22     6
    ##  3 2022-02-08    22     4
    ##  4 2022-10-02    22     4
    ##  5 2020-05-17    22     3
    ##  6 2020-07-26    22     3
    ##  7 2020-12-30    22     3
    ##  8 2021-09-06    22     3
    ##  9 2021-12-31    22     3
    ## 10 2020-05-27    22     2
    ## # ... with 75 more rows
…
